﻿20120705 1236-66 Bte - Pprov
0212318361351
0000000000052286986000000000006546546541000000001000000000000066330                           
11MIG850101IZ2 00000000000000xxxx@xx.com
05072012PROVEEDORES DE EQUIPOS FORMAS Y

021536
0000000000015771324400000000001234567891000000006739850000000066solicitud de la reserva 246 prueba 
11MIG850101IZ2 00000000000000wq@hotmail.com.mz
05072012AGUIRRE PEREZ VICTOR MANUEL


